   __                                          __  _
  / /__________ _____  _________ _____  ____  / /_(_)___  ____ 
 / __/ ___/ __ `/ __ \/ ___/ __ `/ __ \/ __ \/ __/ / __ \/ __ \
/ /_/ /  / /_/ / / / (__  ) /_/ / /_/ / /_/ / /_/ / /_/ / / / /
\__/_/   \__,_/_/ /_/____/\__,_/ .___/ .___/\__/_/\____/_/ /_/ 
                              /_/   /_/